Versuch 1/Bericht/media/55cm.csv

Record Length,2500,Points,-2.4999999E-6,432.000011206E-3,
Sample Interval,9.999999939E-9,s,-2.4900000E-6,440.000027418E-3,
Trigger Point,249.99999520,Samples,-2.4799999E-6,440.000027418E-3,
,,,-2.4700000E-6,448.000013828E-3,
,,,-2.4599999E-6,480.000019073E-3,
,,,-2.4500000E-6,480.000019073E-3,
Source,CH1,,-2.4399999E-6,472.000032663E-3,
Vertical Units,Volts,,-2.4300000E-6,464.000016451E-3,
Vertical Scale,200.00000950E-3,,-2.4199999E-6,464.000016451E-3,
Vertical Offset,0,,-2.4100000E-6,464.000016451E-3,
Horizontal Units,s,,-2.3999999E-6,448.000013828E-3,
Horizontal Scale,2.5000000E-6,,-2.3900000E-6,440.000027418E-3,
Pt Fmt,Y,,-2.3799998E-6,432.000011206E-3,
Yzero,-3.56000000,,-2.3699999E-6,432.000011206E-3,
Probe Atten,1.000000,,-2.3599998E-6,440.000027418E-3,
,,,-2.3499999E-6,432.000011206E-3,
Note,TDS 2022B - 15:36:42   13.04.2015,,-2.3400000E-6,456.000030041E-3,
,,,-2.3299999E-6,464.000016451E-3,
,,,-2.3200000E-6,496.000021696E-3,
,,,-2.3099999E-6,480.000019073E-3,
,,,-2.3000000E-6,480.000019073E-3,
,,,-2.2899999E-6,472.000032663E-3,
,,,-2.2800000E-6,464.000016451E-3,
,,,-2.2699999E-6,456.000030041E-3,
,,,-2.2600000E-6,448.000013828E-3,
,,,-2.2499999E-6,448.000013828E-3,
,,,-2.2400000E-6,440.000027418E-3,
,,,-2.2299998E-6,432.000011206E-3,
,,,-2.2199999E-6,440.000027418E-3,
,,,-2.2100000E-6,448.000013828E-3,
,,,-2.1999999E-6,456.000030041E-3,
,,,-2.1900000E-6,464.000016451E-3,
,,,-2.1799999E-6,480.000019073E-3,
,,,-2.1700000E-6,480.000019073E-3,
,,,-2.1599999E-6,464.000016451E-3,
,,,-2.1500000E-6,448.000013828E-3,
,,,-2.1399999E-6,448.000013828E-3,
,,,-2.1300000E-6,448.000013828E-3,
,,,-2.1199999E-6,440.000027418E-3,
,,,-2.1100000E-6,440.000027418E-3,
,,,-2.0999998E-6,440.000027418E-3,
,,,-2.0900000E-6,424.000024796E-3,
,,,-2.0799998E-6,440.000027418E-3,
,,,-2.0699999E-6,456.000030041E-3,
,,,-2.0600000E-6,480.000019073E-3,
,,,-2.0499999E-6,480.000019073E-3,
,,,-2.0400000E-6,480.000019073E-3,
,,,-2.0299999E-6,480.000019073E-3,
,,,-2.0200000E-6,480.000019073E-3,
,,,-2.0099999E-6,456.000030041E-3,
,,,-2.0000000E-6,456.000030041E-3,
,,,-1.9899999E-6,448.000013828E-3,
,,,-1.9800000E-6,448.000013828E-3,
,,,-1.9699999E-6,432.000011206E-3,
,,,-1.9600000E-6,432.000011206E-3,
,,,-1.9499998E-6,432.000011206E-3,
,,,-1.9399999E-6,448.000013828E-3,
,,,-1.9300001E-6,456.000030041E-3,
,,,-1.9199999E-6,472.000032663E-3,
,,,-1.9100000E-6,480.000019073E-3,
,,,-1.8999999E-6,472.000032663E-3,
,,,-1.8899999E-6,472.000032663E-3,
,,,-1.8799999E-6,456.000030041E-3,
,,,-1.8699999E-6,448.000013828E-3,
,,,-1.8599999E-6,448.000013828E-3,
,,,-1.8500000E-6,448.000013828E-3,
,,,-1.8400000E-6,440.000027418E-3,
,,,-1.8300000E-6,440.000027418E-3,
,,,-1.8200000E-6,424.000024796E-3,
,,,-1.8100000E-6,440.000027418E-3,
,,,-1.7999999E-6,464.000016451E-3,
,,,-1.7899999E-6,480.000019073E-3,
,,,-1.7799999E-6,488.000035286E-3,
,,,-1.7699999E-6,480.000019073E-3,
,,,-1.7599999E-6,480.000019073E-3,
,,,-1.7499999E-6,472.000032663E-3,
,,,-1.7399999E-6,464.000016451E-3,
,,,-1.7299999E-6,456.000030041E-3,
,,,-1.7199999E-6,448.000013828E-3,
,,,-1.7100000E-6,440.000027418E-3,
,,,-1.7000000E-6,440.000027418E-3,
,,,-1.6900000E-6,440.000027418E-3,
,,,-1.6800000E-6,432.000011206E-3,
,,,-1.6700000E-6,440.000027418E-3,
,,,-1.6600000E-6,456.000030041E-3,
,,,-1.6499999E-6,472.000032663E-3,
,,,-1.6399999E-6,472.000032663E-3,
,,,-1.6299999E-6,480.000019073E-3,
,,,-1.6199999E-6,464.000016451E-3,
,,,-1.6099999E-6,456.000030041E-3,
,,,-1.5999999E-6,456.000030041E-3,
,,,-1.5899999E-6,440.000027418E-3,
,,,-1.5799999E-6,440.000027418E-3,
,,,-1.5700000E-6,432.000011206E-3,
,,,-1.5600000E-6,440.000027418E-3,
,,,-1.5500000E-6,432.000011206E-3,
,,,-1.5400000E-6,448.000013828E-3,
,,,-1.5300000E-6,464.000016451E-3,
,,,-1.5200000E-6,488.000035286E-3,
,,,-1.5099999E-6,480.000019073E-3,
,,,-1.4999999E-6,480.000019073E-3,
,,,-1.4899999E-6,480.000019073E-3,
,,,-1.4799999E-6,464.000016451E-3,
,,,-1.4699999E-6,472.000032663E-3,
,,,-1.4599999E-6,456.000030041E-3,
,,,-1.4499999E-6,448.000013828E-3,
,,,-1.4399999E-6,448.000013828E-3,
,,,-1.4300000E-6,432.000011206E-3,
,,,-1.4200000E-6,432.000011206E-3,
,,,-1.4100000E-6,432.000011206E-3,
,,,-1.4000000E-6,440.000027418E-3,
,,,-1.3900000E-6,456.000030041E-3,
,,,-1.3800000E-6,480.000019073E-3,
,,,-1.3699999E-6,472.000032663E-3,
,,,-1.3599999E-6,472.000032663E-3,
,,,-1.3499999E-6,464.000016451E-3,
,,,-1.3399999E-6,448.000013828E-3,
,,,-1.3299999E-6,456.000030041E-3,
,,,-1.3199999E-6,440.000027418E-3,
,,,-1.3099999E-6,440.000027418E-3,
,,,-1.2999999E-6,440.000027418E-3,
,,,-1.2900000E-6,424.000024796E-3,
,,,-1.2800000E-6,440.000027418E-3,
,,,-1.2700000E-6,448.000013828E-3,
,,,-1.2600000E-6,456.000030041E-3,
,,,-1.2500000E-6,488.000035286E-3,
,,,-1.2400000E-6,488.000035286E-3,
,,,-1.2300000E-6,480.000019073E-3,
,,,-1.2199999E-6,472.000032663E-3,
,,,-1.2099999E-6,472.000032663E-3,
,,,-1.1999999E-6,448.000013828E-3,
,,,-1.1899999E-6,456.000030041E-3,
,,,-1.1799999E-6,448.000013828E-3,
,,,-1.1699999E-6,440.000027418E-3,
,,,-1.1599999E-6,440.000027418E-3,
,,,-1.1499999E-6,424.000024796E-3,
,,,-1.1400000E-6,432.000011206E-3,
,,,-1.1300000E-6,456.000030041E-3,
,,,-1.1200000E-6,464.000016451E-3,
,,,-1.1100000E-6,480.000019073E-3,
,,,-1.1000000E-6,488.000035286E-3,
,,,-1.0900000E-6,480.000019073E-3,
,,,-1.0799999E-6,464.000016451E-3,
,,,-1.0699999E-6,456.000030041E-3,
,,,-1.0599999E-6,456.000030041E-3,
,,,-1.0499999E-6,448.000013828E-3,
,,,-1.0399999E-6,440.000027418E-3,
,,,-1.0299999E-6,440.000027418E-3,
,,,-1.0199999E-6,440.000027418E-3,
,,,-1.0099999E-6,424.000024796E-3,
,,,-1.000000E-6,448.000013828E-3,
,,,-989.999989542E-9,456.000030041E-3,
,,,-979.999981610E-9,480.000019073E-3,
,,,-969.999973677E-9,488.000035286E-3,
,,,-959.999965744E-9,488.000035286E-3,
,,,-949.999957811E-9,480.000019073E-3,
,,,-939.999949878E-9,464.000016451E-3,
,,,-929.999941945E-9,456.000030041E-3,
,,,-919.999934013E-9,448.000013828E-3,
,,,-909.999926080E-9,448.000013828E-3,
,,,-899.999918147E-9,448.000013828E-3,
,,,-889.999967058E-9,432.000011206E-3,
,,,-879.999959125E-9,432.000011206E-3,
,,,-869.999951192E-9,448.000013828E-3,
,,,-859.999943259E-9,456.000030041E-3,
,,,-849.999935326E-9,472.000032663E-3,
,,,-839.999927393E-9,480.000019073E-3,
,,,-829.999919461E-9,480.000019073E-3,
,,,-819.999968371E-9,464.000016451E-3,
,,,-809.999960438E-9,472.000032663E-3,
,,,-799.999952505E-9,464.000016451E-3,
,,,-789.999944573E-9,456.000030041E-3,
,,,-779.999936640E-9,448.000013828E-3,
,,,-769.999928707E-9,440.000027418E-3,
,,,-759.999920774E-9,440.000027418E-3,
,,,-749.999969685E-9,424.000024796E-3,
,,,-739.999961752E-9,432.000011206E-3,
,,,-729.999953819E-9,456.000030041E-3,
,,,-719.999945886E-9,472.000032663E-3,
,,,-709.999937953E-9,480.000019073E-3,
,,,-699.999930021E-9,480.000019073E-3,
,,,-689.999922088E-9,480.000019073E-3,
,,,-679.999970998E-9,472.000032663E-3,
,,,-669.999963065E-9,472.000032663E-3,
,,,-659.999955133E-9,456.000030041E-3,
,,,-649.999947200E-9,456.000030041E-3,
,,,-639.999939267E-9,440.000027418E-3,
,,,-629.999931334E-9,440.000027418E-3,
,,,-619.999923401E-9,432.000011206E-3,
,,,-609.999972312E-9,432.000011206E-3,
,,,-599.999964379E-9,440.000027418E-3,
,,,-589.999956446E-9,456.000030041E-3,
,,,-579.999948513E-9,464.000016451E-3,
,,,-569.999940581E-9,480.000019073E-3,
,,,-559.999932648E-9,464.000016451E-3,
,,,-549.999924715E-9,456.000030041E-3,
,,,-539.999973626E-9,456.000030041E-3,
,,,-529.999965693E-9,456.000030041E-3,
,,,-519.999957760E-9,448.000013828E-3,
,,,-509.999949827E-9,448.000013828E-3,
,,,-499.999941894E-9,440.000027418E-3,
,,,-489.999933961E-9,432.000011206E-3,
,,,-479.999926029E-9,432.000011206E-3,
,,,-469.999946517E-9,448.000013828E-3,
,,,-459.999938585E-9,472.000032663E-3,
,,,-449.999959073E-9,472.000032663E-3,
,,,-439.999951141E-9,480.000019073E-3,
,,,-429.999943208E-9,488.000035286E-3,
,,,-419.999935275E-9,480.000019073E-3,
,,,-409.999955764E-9,464.000016451E-3,
,,,-399.99994783E-9,456.000030041E-3,
,,,-389.99993990E-9,456.000030041E-3,
,,,-379.99996039E-9,456.000030041E-3,
,,,-369.99995245E-9,440.000027418E-3,
,,,-359.99994452E-9,432.000011206E-3,
,,,-349.99993659E-9,440.000027418E-3,
,,,-339.99995708E-9,432.000011206E-3,
,,,-329.99994914E-9,456.000030041E-3,
,,,-319.99994121E-9,456.000030041E-3,
,,,-309.99996170E-9,480.000019073E-3,
,,,-299.99995377E-9,480.000019073E-3,
,,,-289.99994584E-9,480.000019073E-3,
,,,-279.99993790E-9,464.000016451E-3,
,,,-269.99995839E-9,464.000016451E-3,
,,,-259.99995046E-9,456.000030041E-3,
,,,-249.99994253E-9,448.000013828E-3,
,,,-239.99996301E-9,440.000027418E-3,
,,,-229.99995508E-9,432.000011206E-3,
,,,-219.99994715E-9,424.000024796E-3,
,,,-209.99995343E-9,440.000027418E-3,
,,,-199.99994549E-9,448.000013828E-3,
,,,-189.99995177E-9,472.000032663E-3,
,,,-179.99994384E-9,480.000019073E-3,
,,,-169.99995012E-9,488.000035286E-3,
,,,-159.99995640E-9,472.000032663E-3,
,,,-149.99994846E-9,464.000016451E-3,
,,,-139.9999547E-9,456.000030041E-3,
,,,-129.9999468E-9,456.000030041E-3,
,,,-119.9999531E-9,448.000013828E-3,
,,,-109.9999523E-9,448.000013828E-3,
,,,-99.999951431E-9,440.000027418E-3,
,,,-89.999950603E-9,432.000011206E-3,
,,,-79.999949776E-9,424.000024796E-3,
,,,-69.999948948E-9,432.000011206E-3,
,,,-59.999948121E-9,464.000016451E-3,
,,,-49.99995085E-9,472.000032663E-3,
,,,-39.99995357E-9,480.000019073E-3,
,,,-29.99995274E-9,480.000019073E-3,
,,,-19.9999519E-9,472.000032663E-3,
,,,-9.999951978E-9,480.000019073E-3,
,,,47.96163404E-15,472.000032663E-3,
,,,10.0000479E-9,464.000016451E-3,
,,,20.0000478E-9,472.000032663E-3,
,,,30.00004867E-9,480.000019073E-3,
,,,40.00004594E-9,496.000021696E-3,
,,,50.00004677E-9,536.000013351E-3,
,,,60.000047597E-9,560.000002384E-3,
,,,70.000048424E-9,584.000051022E-3,
,,,80.000049252E-9,600.000023842E-3,
,,,90.000050079E-9,608.000040054E-3,
,,,100.0000509E-9,592.000007629E-3,
,,,110.0000446E-9,592.000007629E-3,
,,,120.0000526E-9,584.000051022E-3,
,,,130.0000463E-9,576.000034809E-3,
,,,140.0000542E-9,576.000034809E-3,
,,,150.00004794E-9,576.000034809E-3,
,,,160.00004166E-9,592.000007629E-3,
,,,170.00004959E-9,608.000040054E-3,
,,,180.00004331E-9,624.000012875E-3,
,,,190.00005125E-9,632.000029087E-3,
,,,200.00004497E-9,640.000045300E-3,
,,,210.00005290E-9,648.000001907E-3,
,,,220.00004662E-9,632.000029087E-3,
,,,230.00004035E-9,632.000029087E-3,
,,,240.00004828E-9,632.000029087E-3,
,,,250.00005621E-9,632.000029087E-3,
,,,260.00003572E-9,624.000012875E-3,
,,,270.00004366E-9,616.000056267E-3,
,,,280.00005159E-9,624.000012875E-3,
,,,290.00005952E-9,624.000012875E-3,
,,,300.00003903E-9,632.000029087E-3,
,,,310.00004697E-9,624.000012875E-3,
,,,320.00005490E-9,624.000012875E-3,
,,,330.00003441E-9,616.000056267E-3,
,,,340.00004234E-9,600.000023842E-3,
,,,350.00005028E-9,600.000023842E-3,
,,,360.00005821E-9,600.000023842E-3,
,,,370.00003772E-9,600.000023842E-3,
,,,380.00004565E-9,592.000007629E-3,
,,,390.00005359E-9,576.000034809E-3,
,,,400.00003310E-9,576.000034809E-3,
,,,410.000041029E-9,568.000018597E-3,
,,,420.000048962E-9,576.000034809E-3,
,,,430.000056895E-9,560.000002384E-3,
,,,440.000036406E-9,544.000029564E-3,
,,,450.000044339E-9,544.000029564E-3,
,,,460.000052271E-9,544.000029564E-3,
,,,470.000031783E-9,527.999997139E-3,
,,,480.000039715E-9,536.000013351E-3,
,,,490.000047648E-9,536.000013351E-3,
,,,500.000055581E-9,512.000024319E-3,
,,,510.000063514E-9,520.000040531E-3,
,,,520.000071447E-9,504.000008106E-3,
,,,530.000022536E-9,504.000008106E-3,
,,,540.000030469E-9,480.000019073E-3,
,,,550.000038402E-9,488.000035286E-3,
,,,560.000046335E-9,488.000035286E-3,
,,,570.000054267E-9,472.000032663E-3,
,,,580.000062200E-9,464.000016451E-3,
,,,590.000070133E-9,464.000016451E-3,
,,,600.000021223E-9,456.000030041E-3,
,,,610.000029155E-9,448.000013828E-3,
,,,620.000037088E-9,440.000027418E-3,
,,,630.000045021E-9,440.000027418E-3,
,,,640.000052954E-9,448.000013828E-3,
,,,650.000060887E-9,440.000027418E-3,
,,,660.000068819E-9,416.000008583E-3,
,,,670.000019909E-9,416.000008583E-3,
,,,680.000027842E-9,416.000008583E-3,
,,,690.000035775E-9,416.000008583E-3,
,,,700.000043707E-9,424.000024796E-3,
,,,710.000051640E-9,424.000024796E-3,
,,,720.000059573E-9,416.000008583E-3,
,,,730.000067506E-9,424.000024796E-3,
,,,740.000018595E-9,424.000024796E-3,
,,,750.000026528E-9,432.000011206E-3,
,,,760.000034461E-9,432.000011206E-3,
,,,770.000042394E-9,432.000011206E-3,
,,,780.000050327E-9,424.000024796E-3,
,,,790.000058259E-9,432.000011206E-3,
,,,800.000066192E-9,432.000011206E-3,
,,,810.000017282E-9,424.000024796E-3,
,,,820.000025215E-9,432.000011206E-3,
,,,830.000033147E-9,440.000027418E-3,
,,,840.000041080E-9,448.000013828E-3,
,,,850.000049013E-9,456.000030041E-3,
,,,860.000056946E-9,456.000030041E-3,
,,,870.000064879E-9,456.000030041E-3,
,,,880.000015968E-9,456.000030041E-3,
,,,890.000023901E-9,456.000030041E-3,
,,,900.000031834E-9,432.000011206E-3,
,,,910.000039767E-9,448.000013828E-3,
,,,920.000047699E-9,440.000027418E-3,
,,,930.000055632E-9,448.000013828E-3,
,,,940.000063565E-9,456.000030041E-3,
,,,950.000014655E-9,456.000030041E-3,
,,,960.000079431E-9,464.000016451E-3,
,,,970.000087364E-9,456.000030041E-3,
,,,980.000095296E-9,456.000030041E-3,
,,,989.999989542E-9,464.000016451E-3,
,,,1.000000E-6,464.000016451E-3,
,,,1.0100000E-6,472.000032663E-3,
,,,1.0200000E-6,464.000016451E-3,
,,,1.0300000E-6,456.000030041E-3,
,,,1.0400000E-6,456.000030041E-3,
,,,1.0500000E-6,456.000030041E-3,
,,,1.0600000E-6,456.000030041E-3,
,,,1.0700001E-6,472.000032663E-3,
,,,1.0800001E-6,472.000032663E-3,
,,,1.0900001E-6,464.000016451E-3,
,,,1.1000001E-6,464.000016451E-3,
,,,1.1100001E-6,472.000032663E-3,
,,,1.1200001E-6,472.000032663E-3,
,,,1.1300000E-6,472.000032663E-3,
,,,1.1400000E-6,464.000016451E-3,
,,,1.1500000E-6,456.000030041E-3,
,,,1.1600000E-6,448.000013828E-3,
,,,1.1700000E-6,472.000032663E-3,
,,,1.1800000E-6,456.000030041E-3,
,,,1.1900000E-6,464.000016451E-3,
,,,1.2000000E-6,472.000032663E-3,
,,,1.2100001E-6,456.000030041E-3,
,,,1.2200001E-6,456.000030041E-3,
,,,1.2300001E-6,464.000016451E-3,
,,,1.2400001E-6,464.000016451E-3,
,,,1.2500001E-6,448.000013828E-3,
,,,1.2600001E-6,448.000013828E-3,
,,,1.2700000E-6,456.000030041E-3,
,,,1.2800000E-6,456.000030041E-3,
,,,1.2900000E-6,464.000016451E-3,
,,,1.3000000E-6,456.000030041E-3,
,,,1.3100000E-6,456.000030041E-3,
,,,1.3200000E-6,456.000030041E-3,
,,,1.3300000E-6,464.000016451E-3,
,,,1.3400000E-6,456.000030041E-3,
,,,1.3500000E-6,456.000030041E-3,
,,,1.3600001E-6,456.000030041E-3,
,,,1.3700001E-6,456.000030041E-3,
,,,1.3800001E-6,456.000030041E-3,
,,,1.3900001E-6,448.000013828E-3,
,,,1.4000001E-6,448.000013828E-3,
,,,1.4100001E-6,456.000030041E-3,
,,,1.4200000E-6,456.000030041E-3,
,,,1.4300000E-6,448.000013828E-3,
,,,1.4400000E-6,456.000030041E-3,
,,,1.4500000E-6,456.000030041E-3,
,,,1.4600000E-6,464.000016451E-3,
,,,1.4700000E-6,456.000030041E-3,
,,,1.4800000E-6,456.000030041E-3,
,,,1.4900000E-6,456.000030041E-3,
,,,1.5000001E-6,456.000030041E-3,
,,,1.5100001E-6,456.000030041E-3,
,,,1.5200001E-6,456.000030041E-3,
,,,1.5300001E-6,456.000030041E-3,
,,,1.5400001E-6,456.000030041E-3,
,,,1.5500001E-6,456.000030041E-3,
,,,1.5600000E-6,456.000030041E-3,
,,,1.5700000E-6,456.000030041E-3,
,,,1.5800000E-6,448.000013828E-3,
,,,1.5900000E-6,456.000030041E-3,
,,,1.6000000E-6,448.000013828E-3,
,,,1.6100000E-6,448.000013828E-3,
,,,1.6200000E-6,456.000030041E-3,
,,,1.6300000E-6,448.000013828E-3,
,,,1.6400001E-6,456.000030041E-3,
,,,1.6500001E-6,456.000030041E-3,
,,,1.6600001E-6,456.000030041E-3,
,,,1.6700001E-6,464.000016451E-3,
,,,1.6800001E-6,456.000030041E-3,
,,,1.6900001E-6,456.000030041E-3,
,,,1.7000000E-6,456.000030041E-3,
,,,1.7100000E-6,448.000013828E-3,
,,,1.7200000E-6,456.000030041E-3,
,,,1.7300000E-6,448.000013828E-3,
,,,1.7400000E-6,448.000013828E-3,
,,,1.7500000E-6,448.000013828E-3,
,,,1.7600000E-6,448.000013828E-3,
,,,1.7700000E-6,448.000013828E-3,
,,,1.7800000E-6,448.000013828E-3,
,,,1.7900001E-6,456.000030041E-3,
,,,1.8000001E-6,440.000027418E-3,
,,,1.8100001E-6,448.000013828E-3,
,,,1.8200001E-6,448.000013828E-3,
,,,1.8300001E-6,440.000027418E-3,
,,,1.8400000E-6,456.000030041E-3,
,,,1.8500000E-6,448.000013828E-3,
,,,1.8600000E-6,448.000013828E-3,
,,,1.8700000E-6,448.000013828E-3,
,,,1.8800000E-6,448.000013828E-3,
,,,1.8900000E-6,448.000013828E-3,
,,,1.9000000E-6,448.000013828E-3,
,,,1.9100000E-6,456.000030041E-3,
,,,1.9199999E-6,448.000013828E-3,
,,,1.9300001E-6,440.000027418E-3,
,,,1.9399999E-6,440.000027418E-3,
,,,1.9500001E-6,448.000013828E-3,
,,,1.9600000E-6,440.000027418E-3,
,,,1.9700001E-6,448.000013828E-3,
,,,1.9800000E-6,448.000013828E-3,
,,,1.9900001E-6,440.000027418E-3,
,,,2.0000000E-6,448.000013828E-3,
,,,2.0100001E-6,440.000027418E-3,
,,,2.0200000E-6,440.000027418E-3,
,,,2.0300001E-6,448.000013828E-3,
,,,2.0400000E-6,440.000027418E-3,
,,,2.0500001E-6,432.000011206E-3,
,,,2.0600000E-6,440.000027418E-3,
,,,2.0699999E-6,448.000013828E-3,
,,,2.0800001E-6,440.000027418E-3,
,,,2.0900000E-6,456.000030041E-3,
,,,2.1000001E-6,448.000013828E-3,
,,,2.1100000E-6,440.000027418E-3,
,,,2.1200001E-6,440.000027418E-3,
,,,2.1300000E-6,440.000027418E-3,
,,,2.1400001E-6,440.000027418E-3,
,,,2.1500000E-6,440.000027418E-3,
,,,2.1600001E-6,432.000011206E-3,
,,,2.1700000E-6,448.000013828E-3,
,,,2.1800001E-6,440.000027418E-3,
,,,2.1900000E-6,440.000027418E-3,
,,,2.1999999E-6,440.000027418E-3,
,,,2.2100000E-6,448.000013828E-3,
,,,2.2199999E-6,440.000027418E-3,
,,,2.2300001E-6,448.000013828E-3,
,,,2.2400000E-6,448.000013828E-3,
,,,2.2500001E-6,448.000013828E-3,
,,,2.2600000E-6,448.000013828E-3,
,,,2.2700001E-6,440.000027418E-3,
,,,2.2800000E-6,440.000027418E-3,
,,,2.2900001E-6,440.000027418E-3,
,,,2.3000000E-6,440.000027418E-3,
,,,2.3100001E-6,448.000013828E-3,
,,,2.3200000E-6,440.000027418E-3,
,,,2.3300001E-6,440.000027418E-3,
,,,2.3400000E-6,456.000030041E-3,
,,,2.3499999E-6,448.000013828E-3,
,,,2.3600001E-6,448.000013828E-3,
,,,2.3699999E-6,440.000027418E-3,
,,,2.3800001E-6,448.000013828E-3,
,,,2.3900000E-6,440.000027418E-3,
,,,2.4000001E-6,448.000013828E-3,
,,,2.4100000E-6,456.000030041E-3,
,,,2.4200001E-6,448.000013828E-3,
,,,2.4300000E-6,456.000030041E-3,
,,,2.4400001E-6,456.000030041E-3,
,,,2.4500000E-6,448.000013828E-3,
,,,2.4600001E-6,448.000013828E-3,
,,,2.4700000E-6,448.000013828E-3,
,,,2.4799999E-6,448.000013828E-3,
,,,2.4900000E-6,456.000030041E-3,
,,,2.4999999E-6,440.000027418E-3,
,,,2.5100001E-6,456.000030041E-3,
,,,2.5200000E-6,448.000013828E-3,
,,,2.5300001E-6,432.000011206E-3,
,,,2.5400000E-6,440.000027418E-3,
,,,2.5500001E-6,440.000027418E-3,
,,,2.5600000E-6,440.000027418E-3,
,,,2.5700001E-6,448.000013828E-3,
,,,2.5800000E-6,448.000013828E-3,
,,,2.5900001E-6,456.000030041E-3,
,,,2.6000000E-6,448.000013828E-3,
,,,2.6100001E-6,448.000013828E-3,
,,,2.6200000E-6,448.000013828E-3,
,,,2.6299999E-6,456.000030041E-3,
,,,2.6400000E-6,448.000013828E-3,
,,,2.6499999E-6,448.000013828E-3,
,,,2.6600001E-6,448.000013828E-3,
,,,2.6700000E-6,456.000030041E-3,
,,,2.6800001E-6,448.000013828E-3,
,,,2.6900000E-6,440.000027418E-3,
,,,2.7000001E-6,448.000013828E-3,
,,,2.7100000E-6,456.000030041E-3,
,,,2.72000011E-6,448.000013828E-3,
,,,2.73000001E-6,456.000030041E-3,
,,,2.74000013E-6,448.000013828E-3,
,,,2.75000002E-6,448.000013828E-3,
,,,2.76000014E-6,448.000013828E-3,
,,,2.77000004E-6,440.000027418E-3,
,,,2.77999993E-6,448.000013828E-3,
,,,2.79000005E-6,448.000013828E-3,
,,,2.79999995E-6,448.000013828E-3,
,,,2.81000007E-6,448.000013828E-3,
,,,2.81999996E-6,448.000013828E-3,
,,,2.83000008E-6,456.000030041E-3,
,,,2.83999998E-6,456.000030041E-3,
,,,2.85000010E-6,456.000030041E-3,
,,,2.86000000E-6,456.000030041E-3,
,,,2.87000012E-6,440.000027418E-3,
,,,2.88000001E-6,448.000013828E-3,
,,,2.89000013E-6,440.000027418E-3,
,,,2.90000003E-6,448.000013828E-3,
,,,2.90999992E-6,448.000013828E-3,
,,,2.92000004E-6,448.000013828E-3,
,,,2.92999994E-6,448.000013828E-3,
,,,2.94000006E-6,440.000027418E-3,
,,,2.94999995E-6,448.000013828E-3,
,,,2.96000007E-6,448.000013828E-3,
,,,2.96999997E-6,440.000027418E-3,
,,,2.98000009E-6,456.000030041E-3,
,,,2.98999998E-6,448.000013828E-3,
,,,3.00000011E-6,440.000027418E-3,
